<?xml version="1.0" encoding="UTF-8"?>
<?latexml searchpaths="/home/alephzero/Documents/LateXMLTest/sal2"?>
<?latexml RelaxNGSchema="LaTeXML"?>
<document xmlns="http://dlmf.nist.gov/LaTeXML" 
  xmlns:m="http://www.w3.org/1998/Math/MathML" xml:id="Document">
  <resource src="LaTeXML.css" type="text/css"/>
  <para>
    <p>
      <Math mode="inline" tex="(a-b)/c*d" text="((a - b) / c) * d">
        <math alttext="(a-b)/c*d" display="inline">
          <apply>
            <times/>
            <apply>
              <divide/>
              <apply>
                <minus/>
                <ci>𝑎</ci>
                <ci>𝑏</ci>
              </apply>
              <ci>𝑐</ci>
            </apply>
            <ci>𝑑</ci>
          </apply>
        </math>
      </Math>
    </p>
  </para>
</document>
